<?xml version="1.0" encoding="UTF-8" standalone="no"?>
<svg
   sodipodi:docname="icon.svg"
   inkscape:version="1.3.2 (091e20ef0f, 2023-11-25)"
   id="svg8"
   version="1.1"
   viewBox="0 0 56.091665 21.166667"
   height="80"
   width="212"
   xmlns:inkscape="http://www.inkscape.org/namespaces/inkscape"
   xmlns:sodipodi="http://sodipodi.sourceforge.net/DTD/sodipodi-0.dtd"
   xmlns:xlink="http://www.w3.org/1999/xlink"
   xmlns="http://www.w3.org/2000/svg"
   xmlns:svg="http://www.w3.org/2000/svg"
   xmlns:rdf="http://www.w3.org/1999/02/22-rdf-syntax-ns#"
   xmlns:cc="http://creativecommons.org/ns#"
   xmlns:dc="http://purl.org/dc/elements/1.1/">
  <defs
     id="defs2">
    <linearGradient
       id="linearGradient63"
       inkscape:collect="always">
      <stop
         style="stop-color:#bf616a;stop-opacity:1;"
         offset="0"
         id="stop63" />
      <stop
         style="stop-color:#693039;stop-opacity:1;"
         offset="1"
         id="stop64" />
    </linearGradient>
    <inkscape:path-effect
       effect="join_type"
       id="path-effect54"
       is_visible="true"
       lpeversion="1"
       linecap_type="round"
       line_width="0.03"
       linejoin_type="miter"
       miter_limit="99.7"
       attempt_force_join="true" />
    <inkscape:path-effect
       effect="mirror_symmetry"
       start_point="29.633333,8.5141199"
       end_point="29.633333,16.987602"
       center_point="29.633333,12.750861"
       id="path-effect44"
       is_visible="true"
       lpeversion="1.2"
       lpesatellites=""
       mode="free"
       discard_orig_path="false"
       fuse_paths="false"
       oposite_fuse="false"
       split_items="false"
       split_open="false"
       link_styles="false" />
    <inkscape:path-effect
       effect="mirror_symmetry"
       start_point="29.633333,9.87374"
       end_point="29.633333,15.526284"
       center_point="29.633333,12.700012"
       id="path-effect16"
       is_visible="true"
       lpeversion="1.2"
       lpesatellites=""
       mode="free"
       discard_orig_path="false"
       fuse_paths="true"
       oposite_fuse="false"
       split_items="false"
       split_open="false"
       link_styles="false" />
    <linearGradient
       id="linearGradient6"
       inkscape:collect="always">
      <stop
         style="stop-color:#2e3440;stop-opacity:1;"
         offset="0"
         id="stop7" />
      <stop
         style="stop-color:#668497;stop-opacity:1;"
         offset="1"
         id="stop8" />
    </linearGradient>
    <linearGradient
       id="linearGradient3">
      <stop
         style="stop-color:#353d4b;stop-opacity:1;"
         offset="0"
         id="stop5" />
      <stop
         style="stop-color:#383838;stop-opacity:1;"
         offset="1"
         id="stop6" />
    </linearGradient>
    <linearGradient
       inkscape:collect="always"
       xlink:href="#linearGradient6"
       id="linearGradient8"
       x1="31.658594"
       y1="261.86841"
       x2="21.204966"
       y2="251.41478"
       gradientUnits="userSpaceOnUse"
       gradientTransform="matrix(1.0285187,0,0,1.0285179,2.4477455,-251.26049)" />
    <inkscape:path-effect
       effect="fill_between_many"
       method="bsplinespiro"
       autoreverse="false"
       close="false"
       join="false"
       linkedpaths="#path43,0,1"
       id="path-effect55" />
    <linearGradient
       inkscape:collect="always"
       xlink:href="#linearGradient63"
       id="linearGradient64"
       x1="27.90864"
       y1="10.634332"
       x2="34.174879"
       y2="12.746466"
       gradientUnits="userSpaceOnUse" />
    <linearGradient
       inkscape:collect="always"
       xlink:href="#linearGradient63"
       id="linearGradient64-7"
       x1="27.90864"
       y1="10.634332"
       x2="34.174877"
       y2="12.746466"
       gradientUnits="userSpaceOnUse" />
    <linearGradient
       inkscape:collect="always"
       xlink:href="#linearGradient6"
       id="linearGradient2"
       gradientUnits="userSpaceOnUse"
       gradientTransform="matrix(1.0285187,0,0,1.0285179,2.4477455,-251.26049)"
       x1="31.658594"
       y1="261.86841"
       x2="21.204966"
       y2="251.41478" />
    <linearGradient
       inkscape:collect="always"
       xlink:href="#linearGradient63"
       id="linearGradient64-7-7"
       x1="27.90864"
       y1="10.634332"
       x2="34.174877"
       y2="12.746466"
       gradientUnits="userSpaceOnUse" />
    <linearGradient
       inkscape:collect="always"
       xlink:href="#linearGradient6"
       id="linearGradient4"
       gradientUnits="userSpaceOnUse"
       gradientTransform="matrix(1.0285187,0,0,1.0285179,2.4477455,-251.26049)"
       x1="31.658594"
       y1="261.86841"
       x2="21.204966"
       y2="251.41478" />
    <linearGradient
       inkscape:collect="always"
       xlink:href="#linearGradient63"
       id="linearGradient64-7-7-1"
       x1="27.90864"
       y1="10.634332"
       x2="34.174877"
       y2="12.746466"
       gradientUnits="userSpaceOnUse" />
    <linearGradient
       inkscape:collect="always"
       xlink:href="#linearGradient6"
       id="linearGradient5"
       gradientUnits="userSpaceOnUse"
       gradientTransform="matrix(1.0285187,0,0,1.0285179,2.4477455,-251.26049)"
       x1="31.658594"
       y1="261.86841"
       x2="21.204966"
       y2="251.41478" />
    <linearGradient
       inkscape:collect="always"
       xlink:href="#linearGradient63"
       id="linearGradient64-7-7-5"
       x1="27.90864"
       y1="10.634332"
       x2="34.174877"
       y2="12.746466"
       gradientUnits="userSpaceOnUse" />
    <linearGradient
       inkscape:collect="always"
       xlink:href="#linearGradient6"
       id="linearGradient7"
       gradientUnits="userSpaceOnUse"
       gradientTransform="matrix(1.0285187,0,0,1.0285179,2.4477455,-251.26049)"
       x1="31.658594"
       y1="261.86841"
       x2="21.204966"
       y2="251.41478" />
  </defs>
  <sodipodi:namedview
     inkscape:bbox-nodes="true"
     inkscape:snap-bbox-midpoints="false"
     inkscape:snap-bbox="true"
     fit-margin-bottom="0"
     fit-margin-right="0"
     fit-margin-left="0"
     fit-margin-top="0"
     inkscape:window-maximized="1"
     inkscape:window-y="0"
     inkscape:window-x="0"
     inkscape:window-height="1359"
     inkscape:window-width="3440"
     units="px"
     showgrid="true"
     inkscape:current-layer="layer1"
     inkscape:document-units="px"
     inkscape:cy="35.266951"
     inkscape:cx="106.72893"
     inkscape:zoom="11.313709"
     inkscape:pageshadow="2"
     inkscape:pageopacity="0.0"
     borderopacity="1.0"
     bordercolor="#666666"
     pagecolor="#ffffff"
     id="base"
     inkscape:showpageshadow="0"
     inkscape:pagecheckerboard="1"
     inkscape:deskcolor="#505050">
    <inkscape:grid
       originy="-31.750008"
       originx="3.1749999"
       empspacing="4"
       id="grid838"
       type="xygrid"
       spacingy="1"
       spacingx="1"
       units="px"
       visible="true" />
  </sodipodi:namedview>
  <metadata
     id="metadata5">
    <rdf:RDF>
      <cc:Work
         rdf:about="">
        <dc:format>image/svg+xml</dc:format>
        <dc:type
           rdf:resource="http://purl.org/dc/dcmitype/StillImage" />
      </cc:Work>
    </rdf:RDF>
  </metadata>
  <g
     sodipodi:insensitive="true"
     style="display:inline"
     inkscape:label="Baseplates"
     id="layer2"
     inkscape:groupmode="layer">
    <g
       sodipodi:insensitive="true"
       style="display:inline"
       inkscape:label="Base"
       id="layer5"
       inkscape:groupmode="layer">
      <rect
         ry="0"
         y="8.2216984e-06"
         x="-2.4449395e-08"
         height="21.166666"
         width="56.091667"
         id="rect1218"
         style="opacity:1;vector-effect:none;fill:#e7e7e7;fill-opacity:1;fill-rule:nonzero;stroke:none;stroke-width:0.335308;stroke-linecap:round;stroke-linejoin:miter;stroke-miterlimit:4;stroke-dasharray:none;stroke-dashoffset:0;stroke-opacity:1;paint-order:normal" />
      <text
         xml:space="preserve"
         style="font-style:normal;font-weight:normal;font-size:10.5833px;line-height:1.25;font-family:sans-serif;letter-spacing:0px;word-spacing:0px;fill:#000000;fill-opacity:1;stroke:none;stroke-width:0.264583"
         x="6.7613444"
         y="12.413376"
         id="text821-3-2-28"><tspan
           sodipodi:role="line"
           id="tspan819-5-9-97"
           x="6.7613444"
           y="12.413376"
           style="font-size:1.41111px;stroke-width:0.264583">22px</tspan></text>
      <text
         xml:space="preserve"
         style="font-style:normal;font-weight:normal;font-size:10.5833px;line-height:1.25;font-family:sans-serif;letter-spacing:0px;word-spacing:0px;display:inline;fill:#000000;fill-opacity:1;stroke:none;stroke-width:0.264583"
         x="13.693565"
         y="9.7675428"
         id="text821-3-2-28-9"><tspan
           sodipodi:role="line"
           id="tspan819-5-9-97-3"
           x="13.693565"
           y="9.7675428"
           style="font-size:1.41111px;stroke-width:0.264583">32px</tspan></text>
      <text
         xml:space="preserve"
         style="font-style:normal;font-weight:normal;font-size:10.5833px;line-height:1.25;font-family:sans-serif;letter-spacing:0px;word-spacing:0px;display:inline;fill:#000000;fill-opacity:1;stroke:none;stroke-width:0.264583"
         x="23.218565"
         y="5.5342097"
         id="text821-3-2-28-9-6"><tspan
           sodipodi:role="line"
           id="tspan819-5-9-97-3-0"
           x="23.218565"
           y="5.5342097"
           style="font-weight:bold;font-size:1.41111px;stroke-width:0.264583">48px</tspan></text>
      <text
         xml:space="preserve"
         style="font-style:normal;font-weight:normal;font-size:10.5833px;line-height:1.25;font-family:sans-serif;letter-spacing:0px;word-spacing:0px;display:inline;fill:#000000;fill-opacity:1;stroke:none;stroke-width:0.264583"
         x="36.976208"
         y="1.2815838"
         id="text821-3-2-28-9-62"><tspan
           sodipodi:role="line"
           id="tspan819-5-9-97-3-6"
           x="36.976208"
           y="1.2815838"
           style="font-size:1.41111px;stroke-width:0.264583">64px</tspan></text>
      <text
         xml:space="preserve"
         style="font-style:normal;font-weight:normal;font-size:10.5833px;line-height:1.25;font-family:sans-serif;letter-spacing:0px;word-spacing:0px;display:inline;fill:#000000;fill-opacity:1;stroke:none;stroke-width:0.264583"
         x="1.5227321"
         y="14.000876"
         id="text821-3-2-28-1"><tspan
           sodipodi:role="line"
           id="tspan819-5-9-97-8"
           x="1.5227321"
           y="14.000876"
           style="font-size:1.41111px;stroke-width:0.264583">16px</tspan></text>
      <text
         xml:space="preserve"
         style="font-style:normal;font-weight:normal;font-size:10.5833px;line-height:1.25;font-family:sans-serif;letter-spacing:0px;word-spacing:0px;display:inline;fill:#000000;fill-opacity:1;stroke:none;stroke-width:0.264583"
         x="57.111416"
         y="1.0176895"
         id="text821-3-2-28-9-6-7"><tspan
           sodipodi:role="line"
           id="tspan819-5-9-97-3-0-9"
           x="57.111416"
           y="1.0176895"
           style="font-weight:bold;font-size:1.41111px;stroke-width:0.264583">Designing an App Icon</tspan></text>
      <text
         xml:space="preserve"
         style="font-style:normal;font-weight:normal;font-size:10.5833px;line-height:1.25;font-family:sans-serif;letter-spacing:0px;word-spacing:0px;display:inline;fill:#000000;fill-opacity:1;stroke:none;stroke-width:0.264583"
         x="57.130016"
         y="3.1750083"
         id="text821-3-2-28-9-62-2"><tspan
           sodipodi:role="line"
           id="tspan819-5-9-97-3-6-0"
           x="57.130016"
           y="3.1750083"
           style="font-size:1.41111px;stroke-width:0.264583">All you need is the 48px size. Other sizes are nice, but not required.</tspan></text>
      <text
         xml:space="preserve"
         style="font-style:normal;font-weight:normal;font-size:10.5833px;line-height:1.25;font-family:sans-serif;letter-spacing:0px;word-spacing:0px;display:inline;fill:#000000;fill-opacity:1;stroke:none;stroke-width:0.264583"
         x="57.130016"
         y="5.2916751"
         id="text821-3-2-28-9-62-2-2"><tspan
           sodipodi:role="line"
           id="tspan819-5-9-97-3-6-0-3"
           x="57.130016"
           y="5.2916751"
           style="font-size:1.41111px;stroke-width:0.264583">Make sure you stay within the 16plate, 22plate, 32plate, 48plate, and 64plate groups.</tspan></text>
      <text
         xml:space="preserve"
         style="font-style:normal;font-weight:normal;font-size:10.5833px;line-height:1.25;font-family:sans-serif;letter-spacing:0px;word-spacing:0px;display:inline;fill:#000000;fill-opacity:1;stroke:none;stroke-width:0.264583"
         x="57.033554"
         y="7.4083414"
         id="text821-3-2-28-9-62-2-2-7"><tspan
           sodipodi:role="line"
           id="tspan819-5-9-97-3-6-0-3-5"
           x="57.033554"
           y="7.4083414"
           style="font-size:1.41111px;stroke-width:0.264583">Ikona uses these to extract your icon from this file.</tspan></text>
      <text
         xml:space="preserve"
         style="font-style:normal;font-weight:normal;font-size:10.5833px;line-height:1.25;font-family:sans-serif;letter-spacing:0px;word-spacing:0px;display:inline;fill:#000000;fill-opacity:1;stroke:none;stroke-width:0.264583"
         x="57.023911"
         y="20.865574"
         id="text821-3-2-28-9-62-2-2-7-9"><tspan
           sodipodi:role="line"
           id="tspan819-5-9-97-3-6-0-3-5-2"
           x="57.023911"
           y="20.865574"
           style="font-size:1.41111px;stroke-width:0.264583">See https://hig.kde.org/style/icons/ for icon design advice</tspan></text>
      <g
         id="g1429">
        <rect
           y="25.400003"
           x="57.149998"
           height="2.6458333"
           width="15.345833"
           id="rect1108"
           style="opacity:1;vector-effect:none;fill:#6c6c6c;fill-opacity:1;fill-rule:nonzero;stroke:none;stroke-width:0.60057;stroke-linecap:butt;stroke-linejoin:miter;stroke-miterlimit:4;stroke-dasharray:none;stroke-dashoffset:0;stroke-opacity:1;paint-order:normal" />
        <rect
           y="25.664591"
           x="57.414581"
           height="2.1166666"
           width="2.1166666"
           id="rect1016"
           style="opacity:1;vector-effect:none;fill:#232629;fill-opacity:1;fill-rule:nonzero;stroke:none;stroke-width:0.529;stroke-linecap:butt;stroke-linejoin:miter;stroke-miterlimit:4;stroke-dasharray:none;stroke-dashoffset:0;stroke-opacity:1;paint-order:normal" />
        <rect
           y="25.664591"
           x="59.531246"
           height="2.1166666"
           width="2.1166666"
           id="rect1016-3"
           style="opacity:1;vector-effect:none;fill:#eff0f1;fill-opacity:1;fill-rule:nonzero;stroke:none;stroke-width:0.529;stroke-linecap:butt;stroke-linejoin:miter;stroke-miterlimit:4;stroke-dasharray:none;stroke-dashoffset:0;stroke-opacity:1;paint-order:normal" />
        <rect
           y="25.664591"
           x="61.647915"
           height="2.1166666"
           width="2.1166666"
           id="rect1016-3-6"
           style="opacity:1;vector-effect:none;fill:#fcfcfc;fill-opacity:1;fill-rule:nonzero;stroke:none;stroke-width:0.529;stroke-linecap:butt;stroke-linejoin:miter;stroke-miterlimit:4;stroke-dasharray:none;stroke-dashoffset:0;stroke-opacity:1;paint-order:normal" />
        <rect
           y="25.664591"
           x="63.76458"
           height="2.1166666"
           width="2.1166666"
           id="rect1016-3-6-0"
           style="opacity:1;vector-effect:none;fill:#3daee9;fill-opacity:1;fill-rule:nonzero;stroke:none;stroke-width:0.529;stroke-linecap:butt;stroke-linejoin:miter;stroke-miterlimit:4;stroke-dasharray:none;stroke-dashoffset:0;stroke-opacity:1;paint-order:normal" />
        <rect
           y="25.664591"
           x="65.881248"
           height="2.1166666"
           width="2.1166666"
           id="rect1016-3-6-0-6"
           style="opacity:1;vector-effect:none;fill:#27ae60;fill-opacity:1;fill-rule:nonzero;stroke:none;stroke-width:0.529;stroke-linecap:butt;stroke-linejoin:miter;stroke-miterlimit:4;stroke-dasharray:none;stroke-dashoffset:0;stroke-opacity:1;paint-order:normal" />
        <rect
           y="25.664591"
           x="67.997917"
           height="2.1166666"
           width="2.1166666"
           id="rect1016-3-6-0-6-2"
           style="opacity:1;vector-effect:none;fill:#f67400;fill-opacity:1;fill-rule:nonzero;stroke:none;stroke-width:0.529;stroke-linecap:butt;stroke-linejoin:miter;stroke-miterlimit:4;stroke-dasharray:none;stroke-dashoffset:0;stroke-opacity:1;paint-order:normal" />
        <rect
           y="25.664591"
           x="70.114586"
           height="2.1166666"
           width="2.1166666"
           id="rect1016-3-6-0-6-2-6"
           style="opacity:1;vector-effect:none;fill:#da4453;fill-opacity:1;fill-rule:nonzero;stroke:none;stroke-width:0.529;stroke-linecap:butt;stroke-linejoin:miter;stroke-miterlimit:4;stroke-dasharray:none;stroke-dashoffset:0;stroke-opacity:1;paint-order:normal" />
      </g>
      <text
         xml:space="preserve"
         style="font-style:normal;font-weight:normal;font-size:10.5833px;line-height:1.25;font-family:sans-serif;letter-spacing:0px;word-spacing:0px;display:inline;fill:#000000;fill-opacity:1;stroke:none;stroke-width:0.264583"
         x="57.060429"
         y="24.048153"
         id="text821-3-2-28-9-6-7-9"><tspan
           sodipodi:role="line"
           id="tspan819-5-9-97-3-0-9-7"
           x="57.060429"
           y="24.048153"
           style="font-weight:bold;font-size:1.41111px;stroke-width:0.264583">Colour Replacements</tspan></text>
      <text
         xml:space="preserve"
         style="font-style:normal;font-weight:normal;font-size:10.5833px;line-height:1.25;font-family:sans-serif;letter-spacing:0px;word-spacing:0px;display:inline;fill:#000000;fill-opacity:1;stroke:none;stroke-width:0.264583"
         x="57.023911"
         y="29.64781"
         id="text821-3-2-28-9-62-2-2-7-3"><tspan
           sodipodi:role="line"
           id="tspan819-5-9-97-3-6-0-3-5-6"
           x="57.023911"
           y="29.64781"
           style="font-size:1.41111px;stroke-width:0.264583">Ikona will add classes to objects of these colours so they respect the system colour palette</tspan></text>
      <text
         xml:space="preserve"
         style="font-style:normal;font-weight:normal;font-size:10.5833px;line-height:1.25;font-family:sans-serif;letter-spacing:0px;word-spacing:0px;display:inline;fill:#000000;fill-opacity:1;stroke:none;stroke-width:0.264583"
         x="57.023911"
         y="31.764477"
         id="text821-3-2-28-9-62-2-2-7-3-1"><tspan
           sodipodi:role="line"
           id="tspan819-5-9-97-3-6-0-3-5-6-2"
           x="57.023911"
           y="31.764477"
           style="font-size:1.41111px;stroke-width:0.264583">in KDE Plasma environments.</tspan></text>
    </g>
    <g
       style="display:inline"
       sodipodi:insensitive="true"
       inkscape:label="Plates"
       id="layer4"
       inkscape:groupmode="layer">
      <rect
         y="2.1167023"
         x="37.041668"
         height="16.933332"
         width="16.933332"
         id="64plate-3"
         style="display:inline;opacity:1;vector-effect:none;fill:#a5a5a5;fill-opacity:1;fill-rule:nonzero;stroke:none;stroke-width:1.32736;stroke-linecap:butt;stroke-linejoin:miter;stroke-miterlimit:4;stroke-dasharray:none;stroke-dashoffset:0;stroke-opacity:1;paint-order:normal" />
      <g
         id="g1000"
         style="display:inline">
        <rect
           style="opacity:1;vector-effect:none;fill:#a5a5a5;fill-opacity:1;fill-rule:nonzero;stroke:none;stroke-width:0.663678;stroke-linecap:butt;stroke-linejoin:miter;stroke-miterlimit:4;stroke-dasharray:none;stroke-dashoffset:0;stroke-opacity:1;paint-order:normal"
           id="32plate-6"
           width="8.4666662"
           height="8.4666662"
           x="13.758337"
           y="10.583353" />
      </g>
      <g
         id="g980"
         style="display:inline"
         transform="translate(3.175,-244.08331)">
        <rect
           style="opacity:1;vector-effect:none;fill:#a5a5a5;fill-opacity:1;fill-rule:nonzero;stroke:none;stroke-width:0.995517;stroke-linecap:butt;stroke-linejoin:miter;stroke-miterlimit:4;stroke-dasharray:none;stroke-dashoffset:0;stroke-opacity:1;paint-order:normal"
           id="48plate-5"
           width="12.7"
           height="12.7"
           x="20.108334"
           y="250.43332" />
      </g>
      <g
         transform="translate(17.991667,-248.31662)"
         id="g1051"
         style="display:inline">
        <rect
           style="opacity:1;vector-effect:none;fill:#a5a5a5;fill-opacity:1;fill-rule:nonzero;stroke:none;stroke-width:0.456279;stroke-linecap:butt;stroke-linejoin:miter;stroke-miterlimit:4;stroke-dasharray:none;stroke-dashoffset:0;stroke-opacity:1;paint-order:normal"
           id="22plate-2"
           width="5.8208332"
           height="5.8208332"
           x="-11.112498"
           y="261.54581" />
      </g>
      <rect
         y="14.816684"
         x="1.5875002"
         height="4.2333331"
         width="4.2333331"
         id="16plate-9"
         style="display:inline;opacity:1;vector-effect:none;fill:#a5a5a5;fill-opacity:1;fill-rule:nonzero;stroke:none;stroke-width:0.331839;stroke-linecap:butt;stroke-linejoin:miter;stroke-miterlimit:4;stroke-dasharray:none;stroke-dashoffset:0;stroke-opacity:1;paint-order:normal" />
    </g>
    <g
       style="display:inline"
       sodipodi:insensitive="true"
       inkscape:label="Margins"
       id="layer3"
       inkscape:groupmode="layer">
      <rect
         style="display:inline;opacity:1;vector-effect:none;fill:#d80000;fill-opacity:0.162896;fill-rule:nonzero;stroke:none;stroke-width:1.27599;stroke-linecap:butt;stroke-linejoin:miter;stroke-miterlimit:4;stroke-dasharray:none;stroke-dashoffset:0;stroke-opacity:1;paint-order:normal"
         id="rect1128-7-9-2-0-2-3"
         width="16.933332"
         height="1.0583304"
         x="37.041664"
         y="2.1166718" />
      <rect
         style="display:inline;opacity:1;vector-effect:none;fill:#d80000;fill-opacity:0.162896;fill-rule:nonzero;stroke:none;stroke-width:1.27599;stroke-linecap:butt;stroke-linejoin:miter;stroke-miterlimit:4;stroke-dasharray:none;stroke-dashoffset:0;stroke-opacity:1;paint-order:normal"
         id="rect1128-7-9-2-0-2-3-7"
         width="16.933332"
         height="1.0583304"
         x="37.041664"
         y="17.991673" />
      <rect
         y="10.583353"
         x="13.758334"
         height="0.79374301"
         width="8.4666662"
         id="rect1128-7-9"
         style="display:inline;opacity:1;vector-effect:none;fill:#d80000;fill-opacity:0.162896;fill-rule:nonzero;stroke:none;stroke-width:0.781381;stroke-linecap:butt;stroke-linejoin:miter;stroke-miterlimit:4;stroke-dasharray:none;stroke-dashoffset:0;stroke-opacity:1;paint-order:normal" />
      <rect
         y="18.256266"
         x="13.758334"
         height="0.79374301"
         width="8.4666662"
         id="rect1128-7-9-2"
         style="display:inline;opacity:1;vector-effect:none;fill:#d80000;fill-opacity:0.162896;fill-rule:nonzero;stroke:none;stroke-width:0.781381;stroke-linecap:butt;stroke-linejoin:miter;stroke-miterlimit:4;stroke-dasharray:none;stroke-dashoffset:0;stroke-opacity:1;paint-order:normal" />
      <rect
         y="250.43332"
         x="20.108334"
         height="1.0583304"
         width="12.7"
         id="rect1128-7-9-2-0"
         style="display:inline;opacity:1;vector-effect:none;fill:#d80000;fill-opacity:0.162896;fill-rule:nonzero;stroke:none;stroke-width:1.10504;stroke-linecap:butt;stroke-linejoin:miter;stroke-miterlimit:4;stroke-dasharray:none;stroke-dashoffset:0;stroke-opacity:1;paint-order:normal"
         transform="translate(3.175,-244.08331)" />
      <rect
         y="262.07498"
         x="20.108334"
         height="1.0583304"
         width="12.7"
         id="rect1128-7-9-2-0-2"
         style="display:inline;opacity:1;vector-effect:none;fill:#d80000;fill-opacity:0.162896;fill-rule:nonzero;stroke:none;stroke-width:1.10504;stroke-linecap:butt;stroke-linejoin:miter;stroke-miterlimit:4;stroke-dasharray:none;stroke-dashoffset:0;stroke-opacity:1;paint-order:normal"
         transform="translate(3.175,-244.08331)" />
      <rect
         y="261.54578"
         x="-11.1125"
         height="0.52916664"
         width="5.8208332"
         id="rect1128"
         style="display:inline;opacity:1;vector-effect:none;fill:#d80000;fill-opacity:0.162896;fill-rule:nonzero;stroke:none;stroke-width:0.529;stroke-linecap:butt;stroke-linejoin:miter;stroke-miterlimit:4;stroke-dasharray:none;stroke-dashoffset:0;stroke-opacity:1;paint-order:normal"
         transform="translate(17.991667,-248.31662)" />
      <rect
         y="266.83746"
         x="-11.1125"
         height="0.52916664"
         width="5.8208332"
         id="rect1128-7"
         style="display:inline;opacity:1;vector-effect:none;fill:#d80000;fill-opacity:0.162896;fill-rule:nonzero;stroke:none;stroke-width:0.529;stroke-linecap:butt;stroke-linejoin:miter;stroke-miterlimit:4;stroke-dasharray:none;stroke-dashoffset:0;stroke-opacity:1;paint-order:normal"
         transform="translate(17.991667,-248.31662)" />
    </g>
  </g>
  <g
     style="display:inline"
     transform="translate(3.175,-244.08331)"
     id="layer1"
     inkscape:groupmode="layer"
     inkscape:label="App Icons">
    <g
       transform="translate(20.108334,6.3499958)"
       id="48plate">
      <rect
         ry="0.75595385"
         y="245.14166"
         x="1.0583324"
         height="10.583332"
         width="10.583332"
         id="rect1133-1"
         style="display:inline;opacity:1;vector-effect:none;fill:none;fill-opacity:1;fill-rule:nonzero;stroke:none;stroke-width:0.18898806;stroke-linecap:round;stroke-linejoin:miter;stroke-miterlimit:4;stroke-dasharray:none;stroke-dashoffset:0;stroke-opacity:1;paint-order:normal" />
      <rect
         sodipodi:insensitive="true"
         style="opacity:1;vector-effect:none;fill:#000000;fill-opacity:0;fill-rule:nonzero;stroke:none;stroke-width:0.09471525;stroke-linecap:round;stroke-linejoin:miter;stroke-miterlimit:4;stroke-dasharray:none;stroke-dashoffset:0;stroke-opacity:1;paint-order:normal"
         id="rect915"
         width="12.7"
         height="12.7"
         x="2.7755576e-17"
         y="244.08331"
         inkscape:label="#rect836" />
      <g
         id="g2"
         transform="translate(-23.283334,237.73331)">
        <ellipse
           style="display:inline;opacity:1;mix-blend-mode:normal;fill:url(#linearGradient8);stroke:none;stroke-width:0.0000000299342"
           id="Base_Shape"
           cx="29.633333"
           cy="12.70001"
           rx="5.291666"
           ry="5.2916617" />
        <path
           id="path62"
           style="opacity:1;fill:url(#linearGradient64);fill-opacity:1;stroke:none;stroke-width:0.0264583;stroke-linejoin:bevel;stroke-dasharray:none;stroke-opacity:1"
           d="m 29.725021,16.978508 2.44998,-2.728516 1.999878,-1.999878 -1.422652,-1.999878 -0.577226,-1.7358111 -0.577226,1.7358111 -1.881022,0.0047 -1.881022,-0.0047 -0.577226,-1.7358111 -0.577225,1.7358111 -1.422653,1.999878 1.999878,1.999878 2.44998,2.728516 z" />
      </g>
    </g>
    <g
       transform="translate(20.108334,6.3499958)"
       id="64plate">
      <rect
         ry="1.0583355"
         y="240.90833"
         x="14.816666"
         height="14.816667"
         width="14.816667"
         id="rect1133"
         style="display:inline;opacity:1;vector-effect:none;fill:none;fill-opacity:1;fill-rule:nonzero;stroke:none;stroke-width:0.26458332;stroke-linecap:round;stroke-linejoin:miter;stroke-miterlimit:4;stroke-dasharray:none;stroke-dashoffset:0;stroke-opacity:1;paint-order:normal" />
      <rect
         sodipodi:insensitive="true"
         style="opacity:1;vector-effect:none;fill:#d42525;fill-opacity:0;fill-rule:nonzero;stroke:none;stroke-width:0.126287;stroke-linecap:round;stroke-linejoin:miter;stroke-miterlimit:4;stroke-dasharray:none;stroke-dashoffset:0;stroke-opacity:1;paint-order:normal"
         id="zxcqwe"
         width="16.933332"
         height="16.933332"
         x="13.758333"
         y="239.84999"
         inkscape:label="#rect836-3" />
      <g
         id="g2-5"
         transform="matrix(1.4000003,0,0,1.4000015,-19.261677,230.53663)"
         style="display:inline">
        <ellipse
           style="display:inline;opacity:1;mix-blend-mode:normal;fill:url(#linearGradient2);stroke:none;stroke-width:2.99342e-08"
           id="Base_Shape-6"
           cx="29.633333"
           cy="12.70001"
           rx="5.291666"
           ry="5.2916617" />
        <path
           id="path62-2"
           style="opacity:1;fill:url(#linearGradient64-7);fill-opacity:1;stroke:none;stroke-width:0.0264583;stroke-linejoin:bevel;stroke-dasharray:none;stroke-opacity:1"
           d="m 29.725021,16.978508 2.44998,-2.728516 1.999878,-1.999878 -1.422652,-1.999878 -0.577226,-1.7358111 -0.577226,1.7358111 -1.881022,0.0047 -1.881022,-0.0047 -0.577226,-1.7358111 -0.577225,1.7358111 -1.422653,1.999878 1.999878,1.999878 2.44998,2.728516 z" />
      </g>
    </g>
    <g
       transform="translate(20.108334,6.3499958)"
       id="32plate">
      <rect
         ry="0.49137005"
         y="249.11041"
         x="-8.7312508"
         height="6.8791666"
         width="6.8791666"
         id="rect1133-1-2"
         style="display:inline;opacity:1;vector-effect:none;fill:none;fill-opacity:1;fill-rule:nonzero;stroke:none;stroke-width:0.12284225;stroke-linecap:round;stroke-linejoin:miter;stroke-miterlimit:4;stroke-dasharray:none;stroke-dashoffset:0;stroke-opacity:1;paint-order:normal" />
      <rect
         sodipodi:insensitive="true"
         style="opacity:1;vector-effect:none;fill:#d42525;fill-opacity:0;fill-rule:nonzero;stroke:none;stroke-width:0.0631435;stroke-linecap:round;stroke-linejoin:miter;stroke-miterlimit:4;stroke-dasharray:none;stroke-dashoffset:0;stroke-opacity:1;paint-order:normal"
         id="rect917"
         width="8.4666662"
         height="8.4666662"
         x="-9.5249996"
         y="248.31665"
         inkscape:label="#rect836-3-6" />
      <g
         id="g2-5-3"
         transform="matrix(0.65000007,0,0,0.64940829,-24.553336,244.29937)"
         style="display:inline">
        <ellipse
           style="display:inline;opacity:1;mix-blend-mode:normal;fill:url(#linearGradient4);stroke:none;stroke-width:2.99342e-08"
           id="Base_Shape-6-6"
           cx="29.633333"
           cy="12.70001"
           rx="5.291666"
           ry="5.2916617" />
        <path
           id="path62-2-0"
           style="opacity:1;fill:url(#linearGradient64-7-7);fill-opacity:1;stroke:none;stroke-width:0.0264583;stroke-linejoin:bevel;stroke-dasharray:none;stroke-opacity:1"
           d="m 29.725021,16.978508 2.44998,-2.728516 1.999878,-1.999878 -1.422652,-1.999878 -0.577226,-1.7358111 -0.577226,1.7358111 -1.881022,0.0047 -1.881022,-0.0047 -0.577226,-1.7358111 -0.577225,1.7358111 -1.422653,1.999878 1.999878,1.999878 2.44998,2.728516 z" />
      </g>
    </g>
    <g
       transform="translate(20.108334,6.3499958)"
       id="22plate">
      <rect
         ry="0.34017909"
         y="251.49165"
         x="-15.875001"
         height="4.7624974"
         width="4.7624974"
         id="rect1133-1-2-7"
         style="display:inline;opacity:1;vector-effect:none;fill:none;fill-opacity:1;fill-rule:nonzero;stroke:none;stroke-width:0.08504459;stroke-linecap:round;stroke-linejoin:miter;stroke-miterlimit:4;stroke-dasharray:none;stroke-dashoffset:0;stroke-opacity:1;paint-order:normal" />
      <rect
         sodipodi:insensitive="true"
         style="opacity:1;vector-effect:none;fill:#d42525;fill-opacity:0;fill-rule:nonzero;stroke:none;stroke-width:0.04341116;stroke-linecap:round;stroke-linejoin:miter;stroke-miterlimit:4;stroke-dasharray:none;stroke-dashoffset:0;stroke-opacity:1;paint-order:normal"
         id="rect919"
         width="5.8208332"
         height="5.8208332"
         x="-16.404167"
         y="250.96248"
         inkscape:label="#rect836-3-6-7" />
      <g
         id="g2-5-3-9"
         transform="matrix(0.45039375,0,0,0.45000192,-26.838335,248.15786)"
         style="display:inline">
        <ellipse
           style="display:inline;opacity:1;mix-blend-mode:normal;fill:url(#linearGradient5);stroke:none;stroke-width:2.99342e-08"
           id="Base_Shape-6-6-2"
           cx="29.633333"
           cy="12.70001"
           rx="5.291666"
           ry="5.2916617" />
        <path
           id="path62-2-0-0"
           style="opacity:1;fill:url(#linearGradient64-7-7-1);fill-opacity:1;stroke:none;stroke-width:0.0264583;stroke-linejoin:bevel;stroke-dasharray:none;stroke-opacity:1"
           d="m 29.725021,16.978508 2.44998,-2.728516 1.999878,-1.999878 -1.422652,-1.999878 -0.577226,-1.7358111 -0.577226,1.7358111 -1.881022,0.0047 -1.881022,-0.0047 -0.577226,-1.7358111 -0.577225,1.7358111 -1.422653,1.999878 1.999878,1.999878 2.44998,2.728516 z" />
      </g>
    </g>
    <g
       transform="translate(20.108334,6.3499958)"
       id="16plate">
      <rect
         ry="0.30238"
         y="252.54999"
         x="-21.695833"
         height="4.2333112"
         width="4.2333112"
         id="rect1133-1-2-7-0"
         style="display:inline;opacity:1;vector-effect:none;fill:none;fill-opacity:1;fill-rule:nonzero;stroke:none;stroke-width:0.07559483;stroke-linecap:round;stroke-linejoin:miter;stroke-miterlimit:4;stroke-dasharray:none;stroke-dashoffset:0;stroke-opacity:1;paint-order:normal" />
      <rect
         sodipodi:insensitive="true"
         style="opacity:1;vector-effect:none;fill:#d42525;fill-opacity:0;fill-rule:nonzero;stroke:none;stroke-width:0.03157176;stroke-linecap:round;stroke-linejoin:miter;stroke-miterlimit:4;stroke-dasharray:none;stroke-dashoffset:0;stroke-opacity:1;paint-order:normal"
         id="rect921"
         width="4.2333331"
         height="4.2333331"
         x="-21.695833"
         y="252.54999"
         inkscape:label="#rect836-3-6-7-5" />
      <g
         id="g2-5-3-2"
         transform="matrix(0.3999979,0,0,0.37828214,-31.432448,249.74755)"
         style="display:inline">
        <ellipse
           style="display:inline;opacity:1;mix-blend-mode:normal;fill:url(#linearGradient7);stroke:none;stroke-width:2.99342e-08"
           id="Base_Shape-6-6-8"
           cx="29.633333"
           cy="12.70001"
           rx="5.291666"
           ry="5.2916617" />
        <path
           id="path62-2-0-9"
           style="opacity:1;fill:url(#linearGradient64-7-7-5);fill-opacity:1;stroke:none;stroke-width:0.0264583;stroke-linejoin:bevel;stroke-dasharray:none;stroke-opacity:1"
           d="m 29.725021,16.978508 2.44998,-2.728516 1.999878,-1.999878 -1.422652,-1.999878 -0.577226,-1.7358111 -0.577226,1.7358111 -1.881022,0.0047 -1.881022,-0.0047 -0.577226,-1.7358111 -0.577225,1.7358111 -1.422653,1.999878 1.999878,1.999878 2.44998,2.728516 z" />
      </g>
    </g>
  </g>
</svg>
